module github.com/docker/distribution

go 1.17

require (
	cloud.google.com/go/storage v1.24.0
	github.com/Azure/azure-sdk-for-go v58.0.0+incompatible
	github.com/Shopify/toxiproxy v2.1.4+incompatible
	github.com/alicebob/miniredis/v2 v2.22.0
	github.com/aws/aws-sdk-go v1.44.49
	github.com/benbjohnson/clock v1.1.0
	github.com/cenkalti/backoff/v4 v4.1.3
	github.com/denverdino/aliyungo v0.0.0-20210518071019-eb3bbb144d8a
	github.com/docker/go-metrics v0.0.1
	github.com/docker/libtrust v0.0.0-20160708172513-aabc10ec26b7
	github.com/eko/gocache/v2 v2.3.1
	github.com/getsentry/sentry-go v0.13.0
	github.com/globocom/go-redis-prometheus v0.4.0
	github.com/go-redis/redis/v8 v8.11.5
	github.com/go-redis/redismock/v8 v8.0.6
	github.com/golang/mock v1.6.0
	github.com/gorilla/handlers v1.5.1
	github.com/gorilla/mux v1.8.0
	github.com/hashicorp/go-multierror v1.1.1
	github.com/jackc/pgconn v1.10.0
	github.com/jackc/pgerrcode v0.0.0-20201024163028-a0d42d470451
	github.com/jackc/pgx/v4 v4.13.0
	github.com/jszwec/csvutil v1.5.1
	github.com/mitchellh/mapstructure v1.4.1
	github.com/ncw/swift v1.0.52
	github.com/olekukonko/tablewriter v0.0.5
	github.com/opencontainers/go-digest v1.0.0
	github.com/opencontainers/image-spec v1.0.2
	github.com/prometheus/client_golang v1.12.2
	github.com/prometheus/client_model v0.2.0
	github.com/rubenv/sql-migrate v1.1.2
	github.com/sirupsen/logrus v1.8.1
	github.com/spf13/cobra v1.2.1
	github.com/stretchr/testify v1.7.1
	github.com/vmihailenco/msgpack v4.0.4+incompatible
	gitlab.com/gitlab-org/labkit v1.16.0
	golang.org/x/crypto v0.0.0-20211215153901-e495a2d5b3d3
	golang.org/x/oauth2 v0.0.0-20220622183110-fd043fe589d2
	golang.org/x/sync v0.0.0-20220601150217-0de741cfad7f
	golang.org/x/time v0.0.0-20210723032227-1f47c861a9ac
	google.golang.org/api v0.85.0
	gopkg.in/check.v1 v1.0.0-20201130134442-10cb98267c6c
	gopkg.in/yaml.v2 v2.4.0
)

require (
	cloud.google.com/go v0.102.1 // indirect
	cloud.google.com/go/compute v1.7.0 // indirect
	cloud.google.com/go/iam v0.3.0 // indirect
	cloud.google.com/go/profiler v0.1.0 // indirect
	github.com/Azure/go-autorest v14.2.0+incompatible // indirect
	github.com/Azure/go-autorest/autorest v0.11.24 // indirect
	github.com/Azure/go-autorest/autorest/adal v0.9.18 // indirect
	github.com/Azure/go-autorest/autorest/date v0.3.0 // indirect
	github.com/Azure/go-autorest/autorest/to v0.4.0 // indirect
	github.com/Azure/go-autorest/logger v0.2.1 // indirect
	github.com/Azure/go-autorest/tracing v0.6.0 // indirect
	github.com/XiaoMi/pegasus-go-client v0.0.0-20210427083443-f3b6b08bc4c2 // indirect
	github.com/alicebob/gopher-json v0.0.0-20200520072559-a9ecdc9d1d3a // indirect
	github.com/beorn7/perks v1.0.1 // indirect
	github.com/bradfitz/gomemcache v0.0.0-20220106215444-fb4bf637b56d // indirect
	github.com/cespare/xxhash/v2 v2.1.2 // indirect
	github.com/client9/reopen v1.0.0 // indirect
	github.com/davecgh/go-spew v1.1.1 // indirect
	github.com/dgryski/go-rendezvous v0.0.0-20200823014737-9f7001d12a5f // indirect
	github.com/dnaeon/go-vcr v1.0.1 // indirect
	github.com/felixge/httpsnoop v1.0.1 // indirect
	github.com/go-gorp/gorp/v3 v3.0.2 // indirect
	github.com/gofrs/uuid v4.0.0+incompatible // indirect
	github.com/golang-jwt/jwt/v4 v4.2.0 // indirect
	github.com/golang/groupcache v0.0.0-20210331224755-41bb18bfe9da // indirect
	github.com/golang/protobuf v1.5.2 // indirect
	github.com/google/go-cmp v0.5.8 // indirect
	github.com/google/pprof v0.0.0-20210804190019-f964ff605595 // indirect
	github.com/google/uuid v1.3.0 // indirect
	github.com/googleapis/enterprise-certificate-proxy v0.1.0 // indirect
	github.com/googleapis/gax-go/v2 v2.4.0 // indirect
	github.com/hashicorp/errwrap v1.1.0 // indirect
	github.com/inconshreveable/mousetrap v1.0.0 // indirect
	github.com/jackc/chunkreader/v2 v2.0.1 // indirect
	github.com/jackc/pgio v1.0.0 // indirect
	github.com/jackc/pgpassfile v1.0.0 // indirect
	github.com/jackc/pgproto3/v2 v2.1.1 // indirect
	github.com/jackc/pgservicefile v0.0.0-20200714003250-2b9c44734f2b // indirect
	github.com/jackc/pgtype v1.8.1 // indirect
	github.com/jmespath/go-jmespath v0.4.0 // indirect
	github.com/kr/pretty v0.3.0 // indirect
	github.com/kr/text v0.2.0 // indirect
	github.com/mattn/go-runewidth v0.0.12 // indirect
	github.com/matttproud/golang_protobuf_extensions v1.0.1 // indirect
	github.com/oklog/ulid/v2 v2.0.2 // indirect
	github.com/pegasus-kv/thrift v0.13.0 // indirect
	github.com/pmezard/go-difflib v1.0.0 // indirect
	github.com/prometheus/common v0.33.0 // indirect
	github.com/prometheus/procfs v0.7.3 // indirect
	github.com/rivo/uniseg v0.2.0 // indirect
	github.com/rogpeppe/go-internal v1.8.0 // indirect
	github.com/sebest/xff v0.0.0-20210106013422-671bd2870b3a // indirect
	github.com/spf13/cast v1.5.0 // indirect
	github.com/spf13/pflag v1.0.5 // indirect
	github.com/yuin/gopher-lua v0.0.0-20210529063254-f4c35e4016d9 // indirect
	go.opencensus.io v0.23.0 // indirect
	golang.org/x/net v0.0.0-20220617184016-355a448f1bc9 // indirect
	golang.org/x/sys v0.0.0-20220615213510-4f61da869c0c // indirect
	golang.org/x/text v0.3.7 // indirect
	golang.org/x/xerrors v0.0.0-20220609144429-65e65417b02f // indirect
	google.golang.org/appengine v1.6.7 // indirect
	google.golang.org/genproto v0.0.0-20220617124728-180714bec0ad // indirect
	google.golang.org/grpc v1.47.0 // indirect
	google.golang.org/protobuf v1.28.0 // indirect
	gopkg.in/natefinch/lumberjack.v2 v2.0.0 // indirect
	gopkg.in/tomb.v2 v2.0.0-20161208151619-d5d1b5820637 // indirect
	gopkg.in/yaml.v3 v3.0.0-20210107192922-496545a6307b // indirect
	k8s.io/apimachinery v0.23.5 // indirect
)
